Read IDEA4 items and metadata — read_idea • IDEATools
…
#> $metadata$MTD_13
#> [1] "2019"
#> 
#> $metadata$MTD_14
#> [1] "1"
#> 
#> $metadata$MTD_15
#> [1] 0
#> 
#> $metadata$MTD_16
#> [1] "1"
#> 
#> 
#> $items
#> # A tibble: 118 × 2
#>    item  value
#>    <chr> <int>
#>  1 A1_1      3
#>  2 A1_2      0
#>  3 A2_1      0
#>  4 A2_2      2
#>  5 A2_3      0
#>  6 A3_1      0
#>  7 A4_1      1
#>  8 A4_2      0
#>  9 A5_1      2
#> 10 A5_2      0
#> # ℹ 108 more rows
…
